Adders/full_adder.vcd
$date
	Wed Aug 20 12:08:27 2025
$end
$version
	Icarus Verilog
$end
$timescale
	1s
$end
$scope module full_adder_tb $end
$var wire 1 ! cy $end
$var wire 1 " ss $end
$var reg 1 # aa $end
$var reg 1 $ bb $end
$var reg 1 % cc $end
$scope module add1 $end
$var wire 1 & a $end
$var wire 1 ' b $end
$var wire 1 ( cin $end
$var wire 1 ! cout $end
$var wire 1 " sum $end
$var wire 5 ) t [4:0] $end
$upscope $end
$upscope $end
$enddefinitions $end
#0
$dumpvars
b0 )
0(
0'
0&
0%
0$
0#
0"
0!
$end
#5
1"
1%
1(
#10
1"
b1 )
0%
0(
1$
1'
#15
1!
0"
b1001 )
1%
1(
#20
0!
1"
b1 )
0%
0(
0$
0'
1#
1&
#25
1!
0"
b10101 )
1%
1(
#30
0"
b10010 )
0%
0(
1$
1'
#35
1"
b11110 )
1%
1(
